S5
…
Setting direction: controls < cases

Setting levels: control = healthy, case = cancer

Setting direction: controls < cases

Setting levels: control = healthy, case = cancer

Setting direction: controls < cases

Setting levels: control = healthy, case = cancer

Setting direction: controls < cases

# A tibble: 23 × 4
# Groups:   model [1]
   type                        sens  spec model          
   <chr>                      <dbl> <dbl> <chr>          
 1 AUC: 0.92 (95% CI: 0.79-1)   0   1     DELFI+CA125+HE4
 2 AUC: 0.92 (95% CI: 0.79-1)   0.2 1     DELFI+CA125+HE4
 3 AUC: 0.92 (95% CI: 0.79-1)   0.4 1     DELFI+CA125+HE4
 4 AUC: 0.92 (95% CI: 0.79-1)   0.6 0.882 DELFI+CA125+HE4
 5 AUC: 0.92 (95% CI: 0.79-1)   0.6 0.941 DELFI+CA125+HE4
 6 AUC: 0.92 (95% CI: 0.79-1)   0.6 1     DELFI+CA125+HE4
 7 AUC: 0.92 (95% CI: 0.79-1)   0.8 0.706 DELFI+CA125+HE4
 8 AUC: 0.92 (95% CI: 0.79-1)   0.8 0.765 DELFI+CA125+HE4
 9 AUC: 0.92 (95% CI: 0.79-1)   0.8 0.824 DELFI+CA125+HE4
10 AUC: 0.92 (95% CI: 0.79-1)   0.8 0.882 DELFI+CA125+HE4
# ℹ 13 more rows
…
Setting direction: controls < cases

Setting levels: control = healthy, case = cancer

Setting direction: controls < cases

Setting levels: control = healthy, case = cancer

Setting direction: controls < cases

Setting levels: control = healthy, case = cancer

Setting direction: controls < cases

# A tibble: 188 × 4
# Groups:   model [1]
   type                        sens  spec model          
   <chr>                      <dbl> <dbl> <chr>          
 1 AUC: 0.99 (95% CI: 0.97-1)   0   1     DELFI+CA125+HE4
 2 AUC: 0.99 (95% CI: 0.97-1)   0.2 1     DELFI+CA125+HE4
 3 AUC: 0.99 (95% CI: 0.97-1)   0.4 1     DELFI+CA125+HE4
 4 AUC: 0.99 (95% CI: 0.97-1)   0.6 1     DELFI+CA125+HE4
 5 AUC: 0.99 (95% CI: 0.97-1)   0.8 0.956 DELFI+CA125+HE4
 6 AUC: 0.99 (95% CI: 0.97-1)   0.8 0.962 DELFI+CA125+HE4
 7 AUC: 0.99 (95% CI: 0.97-1)   0.8 0.967 DELFI+CA125+HE4
 8 AUC: 0.99 (95% CI: 0.97-1)   0.8 0.973 DELFI+CA125+HE4
 9 AUC: 0.99 (95% CI: 0.97-1)   0.8 0.978 DELFI+CA125+HE4
10 AUC: 0.99 (95% CI: 0.97-1)   0.8 0.984 DELFI+CA125+HE4
# ℹ 178 more rows
…
