S6
…
dxd3$model<-"mfl"
dxd3$type<-paste0("Median cfDNA fragment length AUC: ",round(roc(dxd$Condition2,dxd$`Median fragment length`)$auc[1],2)," (95% CI: ",round(roc(dxd$Condition2,dxd$`Median fragment length`,ci=T)$ci[1],2) ,"-",round(roc(dxd$Condition2,dxd$`Median fragment length`,ci=T)$ci[3],2) ,")")

Setting levels: control = cancer, case = healthy
Setting direction: controls < cases
Setting levels: control = cancer, case = healthy
Setting direction: controls < cases
Setting levels: control = cancer, case = healthy
Setting direction: controls < cases

b<-rbind(dxd2, dxd3)
b1<-b %>% group_by(model) %>% arrange(sens)
b1

# A tibble: 291 × 4
# Groups:   model [2]
   type                                                         sens  spec model
   <chr>                                                       <dbl> <dbl> <chr>
 1 ichorCNA AUC: 0.6 (95% CI: 0.53-0.68)                      0      1     ichor
 2 Median cfDNA fragment length AUC: 0.56 (95% CI: 0.49-0.64) 0      1     mfl  
 3 ichorCNA AUC: 0.6 (95% CI: 0.53-0.68)                      0.0106 1     ichor
 4 Median cfDNA fragment length AUC: 0.56 (95% CI: 0.49-0.64) 0.0106 1     mfl  
 5 ichorCNA AUC: 0.6 (95% CI: 0.53-0.68)                      0.0213 1     ichor
 6 Median cfDNA fragment length AUC: 0.56 (95% CI: 0.49-0.64) 0.0213 0.995 mfl  
 7 Median cfDNA fragment length AUC: 0.56 (95% CI: 0.49-0.64) 0.0213 1     mfl  
 8 ichorCNA AUC: 0.6 (95% CI: 0.53-0.68)                      0.0319 1     ichor
 9 Median cfDNA fragment length AUC: 0.56 (95% CI: 0.49-0.64) 0.0319 0.995 mfl  
10 ichorCNA AUC: 0.6 (95% CI: 0.53-0.68)                      0.0426 1     ichor
# ℹ 281 more rows
…
screend$`Screening DELFI-Pro Score` <- as.numeric(screend$`Screening DELFI-Pro Score`)
screend$Condition <- factor(screend$Condition, levels = c("No cancer", "Cancer"))
table(screend$Condition)

No cancer    Cancer 
      182        94 

screend1 <- screend %>% mutate(id = PGDXID) %>% select(id, Condition, ichor)
screend2 <- inner_join(screend1, correct_scores, by = c("id"))
screend2

# A tibble: 42 × 24
   id    Condition   ichor  ...1 id2   cohort type  type2 training_set_include…¹
   <chr> <fct>       <dbl> <dbl> <chr> <chr>  <chr> <chr> <chr>                 
 1 PGDX… Cancer    0.0125    443 PGDX… NKI-H… canc… Low … yes                   
 2 PGDX… Cancer    0.0134    471 PGDX… NKI-H… canc… Muci… yes                   
 3 PGDX… Cancer    0.0911    474 PGDX… NKI-H… canc… Gian… yes                   
 4 PGDX… Cancer    0.0112    442 PGDX… NKI-H… canc… Muci… yes                   
 5 PGDX… Cancer    0.00418   441 PGDX… NKI-H… canc… Clea… yes                   
 6 PGDX… Cancer    0.0864    477 PGDX… NKI-H… canc… High… yes                   
 7 PGDX… Cancer    0.0100    468 PGDX… NKI-H… canc… High… yes                   
 8 PGDX… Cancer    0.0196    475 PGDX… NKI-H… canc… Muci… yes                   
 9 PGDX… Cancer    0.0459    473 PGDX… NKI-H… canc… High… yes                   
10 PGDX… Cancer    0.0129    479 PGDX… NKI-H… canc… High… yes                   
# ℹ 32 more rows
# ℹ abbreviated name: ¹​training_set_include_screening
# ℹ 15 more variables: training_set_include_diag <chr>, diag_val <chr>,
#   screen_val <chr>, stage <chr>, subtype <chr>, subtype_simple <chr>,
#   menopause_status <lgl>, history_of_cancer <chr>, history_binary <chr>,
#   classifier_type <chr>, classifier_type2 <chr>, `Screening ZEUS` <dbl>,
#   `Diagnostic ZEUS` <dbl>, ca125 <dbl>, he4 <dbl>
…
