S8
…
summary.df <- b %>% group_by(id) %>%
    mutate(ratio.hmedian = cor(unique(med.df$healthy.ratio.med), ratio.scaled,  method="pearson", use="complete.obs"), ratio.hmed.abs = abs(ratio.hmedian))

summary.df %>% select(ratio.hmedian, ratio.hmed.abs) %>% distinct() %>% arrange(desc(ratio.hmedian))

Adding missing grouping variables: `id`

# A tibble: 112 × 3
# Groups:   id [112]
   id         ratio.hmedian[,1] ratio.hmed.abs[,1]
   <chr>                  <dbl>              <dbl>
 1 CGPLH179P              0.979              0.979
 2 CGPLH1246P             0.978              0.978
 3 CGPLH167P              0.978              0.978
 4 CGPLH176P              0.977              0.977
 5 CGPLH169P              0.977              0.977
 6 CGPLOV80P              0.976              0.976
 7 CGPLOV626P             0.976              0.976
 8 CGPLOV2P               0.975              0.975
 9 CGPLH170P              0.975              0.975
10 CGPLH171P              0.975              0.975
# ℹ 102 more rows
…
